ID,Name,Email,"Subscribed On",Status
1,Wow,wow@gmail.com,28/01/2022,Active
2,Testing,test@test.com,28/01/2022,Active
3,"Cellis testing",cellis.testing123@gmail.com,30/01/2022,Active
4,"cellis how",cellis.testing123@gmail.com,07/02/2022,Active
